** written by FreeCAD inp file writer for CalculiX,Abaqus meshes
** highest dimension mesh elements only.

** Nodes
*Node, NSET=Nall
1, 173.2050807569, 100, 10
2, 173.2050807569, 100, 0
3, 43.30127018922, 25, 10
4, 43.30127018922, 25, 0
5, 200, 0, 10
6, 200, 0, 0
7, 50, 0, 10
8, 50, 0, 0
9, 60.2, 0, 10
10, 81.95, 0, 10
11, 133.1, 0, 10
12, 180.5, 0, 10
13, 49.27336263857, 8.493275827859, 10
14, 46.90956679612, 17.30585285387, 10
15, 52.52444073953, 30.325, 10
16, 61.22799604756, 35.35, 10
17, 68.76241706048, 39.7, 10
18, 76.55664569454, 44.2, 10
19, 84.09106670747, 48.55, 10
20, 92.27500677323, 53.275, 10
21, 100.8486582707, 58.225, 10
22, 109.2924059576, 63.1, 10
23, 117.7361536445, 67.975, 10
24, 125.2705746574, 72.325, 10
25, 132.8049956703, 76.675, 10
26, 140.3394166833, 81.025, 10
27, 148.7831643702, 85.9, 10
28, 156.4474891937, 90.325, 10
29, 165.670659744, 95.65, 10
30, 199.7972687199, 9.002855772239, 10
31, 199.1894858794, 17.98745993973, 10
32, 197.5540228191, 31.18345824287, 10
33, 195.9500700343, 40.04460080417, 10
34, 193.9744030569, 48.7230023572, 10
35, 191.5845488467, 57.40523184516, 10
36, 188.2469957029, 67.55048933086, 10
37, 185.0154413669, 75.95581910436, 10
38, 181.4528687564, 84.11216570784, 10
39, 177.4826894119, 92.19487490709, 10
40, 60.5, 0, 0
41, 83.15, 0, 0
42, 131.15, 0, 0
43, 179.75, 0, 0
44, 49.26890881566, 8.519074134788, 0
45, 46.91862168881, 17.28128869101, 0
46, 52.52444073953, 30.325, 0
47, 61.22799604756, 35.35, 0
48, 68.76241706048, 39.7, 0
49, 76.55664569454, 44.2, 0
50, 84.09106670747, 48.55, 0
51, 92.27500677323, 53.275, 0
52, 100.8486582707, 58.225, 0
53, 109.2924059576, 63.1, 0
54, 117.7361536445, 67.975, 0
55, 125.2705746574, 72.325, 0
56, 132.8049956703, 76.675, 0
57, 140.3394166833, 81.025, 0
58, 148.7831643702, 85.9, 0
59, 156.4474891937, 90.325, 0
60, 165.670659744, 95.65, 0
61, 199.7972687199, 9.002855772239, 0
62, 199.1894858794, 17.98745993973, 0
63, 197.5540228191, 31.18345824287, 0
64, 195.9500700343, 40.04460080417, 0
65, 193.9744030569, 48.7230023572, 0
66, 191.5845488467, 57.40523184516, 0
67, 188.2469957029, 67.55048933086, 0
68, 185.0154413669, 75.95581910436, 0
69, 181.4528687564, 84.11216570784, 0
70, 177.4826894119, 92.19487490709, 0
71, 56.03021171681, 6.968532419943, 10
72, 54.89690193663, 14.73620985509, 10
73, 52.88582365572, 22.57174377405, 10
74, 58.85468548671, 27.21838391289, 10
75, 67.67602705579, 26.99790174289, 10
76, 77.344484454, 33.64474533197, 10
77, 85.2233546139, 39.5711979466, 10
78, 91.55921619524, 44.95491822001, 10
79, 100.3923770269, 47.05503437836, 10
80, 110.4021348312, 52.31936505769, 10
81, 117.2080621595, 58.93015120526, 10
82, 125.7323109796, 61.66924229682, 10
83, 134.4134331347, 66.4430946149, 10
84, 142.5794549655, 71.5460606077, 10
85, 150.9186240474, 76.63996560805, 10
86, 157.6083990362, 82.3350848629, 10
87, 191.7537508376, 11.15301991743, 10
88, 192.0841185226, 22.51616983504, 10
89, 188.2239185273, 31.40851735257, 10
90, 186.9933409744, 41.17145261302, 10
91, 182.668478332, 49.64369865085, 10
92, 179.5176061688, 59.45648753376, 10
93, 176.6441658721, 69.09915973837, 10
94, 175.1581862769, 77.68174811072, 10
95, 168.2598296293, 85.33844671691, 10
96, 65.58266350457, 12.54322807879, 10
97, 140.5542349828, 33.23938215174, 10
98, 112.3605441764, 35.91967931421, 10
99, 164.1051508126, 73.96563492779, 10
100, 60.07220123267, 20.5762717676, 10
101, 79.42431676937, 20.56058917096, 10
102, 86.90979296823, 30.05624613009, 10
103, 95.64247036276, 36.36273218574, 10
104, 123.0595304272, 49.57627727381, 10
105, 136.4812214732, 54.0453503737, 10
106, 144.0484396807, 62.0174908164, 10
107, 153.7157504949, 66.38816158222, 10
108, 171.5994402587, 34.38452043626, 10
109, 184.1820310511, 20.49684133523, 10
110, 170.9131175543, 51.26769912836, 10
111, 166.7360994675, 62.09260938572, 10
112, 97.08903616832, 20.54810410252, 10
113, 154.1837682281, 51.71734654229, 10
114, 56.21187604122, 7.252641239994, 0
115, 54.82573781627, 15.52117173988, 0
116, 51.45862278547, 22.519822428, 0
117, 59.39143843579, 24.13914988324, 0
118, 69.46046650496, 27.57138255648, 0
119, 78.48308553522, 33.56055030648, 0
120, 86.19567922501, 39.44036247053, 0
121, 94.05468781653, 44.5667124427, 0
122, 101.2895385882, 50.00560172417, 0
123, 110.2433425401, 53.69852232217, 0
124, 117.1435166353, 59.90097352372, 0
125, 125.204804902, 63.22873090464, 0
126, 131.9773156787, 68.35954987529, 0
127, 140.4658968871, 70.4609052688, 0
128, 149.6958688889, 75.32996715288, 0
129, 158.4367297096, 80.48816252153, 0
130, 191.1742002012, 11.64351532752, 0
131, 192.2276008009, 23.78062402407, 0
132, 190.6849451721, 31.8636649335, 0
133, 185.307951258, 38.49941969952, 0
134, 181.0848665794, 48.79023834362, 0
135, 178.6914281328, 59.80296772911, 0
136, 177.1648382028, 69.81362137631, 0
137, 176.1796064305, 77.89367732381, 0
138, 169.3444487432, 85.04043680766, 0
139, 66.07798937136, 13.17112650467, 0
140, 142.797138894, 37.52768022285, 0
141, 83.33210193574, 18.71641998155, 0
142, 88.50037764612, 30.40379671231, 0
143, 95.43860489221, 35.78867668953, 0
144, 109.4439732742, 39.62447488889, 0
145, 123.1281689489, 51.8396837392, 0
146, 135.9121236301, 59.13120385244, 0
147, 151.9032635979, 61.82177300587, 0
148, 158.9388044733, 71.28965347055, 0
149, 167.8455518173, 74.77309569507, 0
150, 183.4028081319, 25.01751102906, 0
151, 170.2383327115, 34.19863295937, 0
152, 166.1416004508, 51.24708162853, 0
153, 166.9885587493, 64.43707396221, 0
154, 99.94927160771, 25.91440444435, 0
155, 190.0713428741, 0, 5.021628560377
156, 88.43748100809, 0, 5.575300728839
157, 174.370768767, 0, 5.622934183547
158, 105.0565240234, 17.53972682577, 5.757297199695
159, 162.7812889152, 21.32683162939, 4.975144530128
160, 120.292730658, 61.77304148524, 4.739037430639
161, 114.6722370264, 62.0210553994, 4.797208780022
162, 55.1, 0, 10
163, 71.075, 0, 10
164, 107.525, 0, 10
165, 156.8, 0, 10
166, 190.25, 0, 10
167, 49.81800945405, 4.262151338911, 10
168, 48.29290172603, 12.953595751, 10
169, 45.2691810449, 21.22972556404, 10
170, 47.91285546437, 27.6625, 10
171, 56.87621839354, 32.8375, 10
172, 64.99520655402, 37.525, 10
173, 72.65953137751, 41.95, 10
174, 80.32385620101, 46.375, 10
175, 88.18303674035, 50.9125, 10
176, 96.56183252196, 55.75, 10
177, 105.0705321141, 60.6625, 10
178, 113.514279801, 65.5375, 10
179, 121.503364151, 70.15, 10
180, 129.0377851639, 74.5, 10
181, 136.5722061768, 78.85, 10
182, 144.5612905267, 83.4625, 10
183, 152.6153267819, 88.1125, 10
184, 161.0590744688, 92.9875, 10
185, 169.4378702504, 97.825, 10
186, 199.9493107565, 4.502569045214, 10
187, 199.5439509593, 13.49857901978, 10
188, 198.4814513158, 24.59905452625, 10
189, 196.8019251302, 35.62305805284, 10
190, 195.0105185426, 44.39479313788, 10
191, 192.8283475672, 53.07756941039, 10
192, 189.9835048658, 62.50014303105, 10
193, 186.6785315026, 71.77134439338, 10
194, 183.2795326234, 80.05381265974, 10
195, 179.513276045, 88.17586814773, 10
196, 175.3873086369, 96.12123578632, 10
197, 55.25, 0, 0
198, 71.825, 0, 0
199, 107.15, 0, 0
200, 155.45, 0, 0
201, 189.875, 0, 0
202, 49.81689191822, 4.275193517077, 0
203, 48.29290172603, 12.953595751, 0
204, 45.27473742264, 21.21787339276, 0
205, 47.91285546437, 27.6625, 0
206, 56.87621839354, 32.8375, 0
207, 64.99520655402, 37.525, 0
208, 72.65953137751, 41.95, 0
209, 80.32385620101, 46.375, 0
210, 88.18303674035, 50.9125, 0
211, 96.56183252196, 55.75, 0
212, 105.0705321141, 60.6625, 0
213, 113.514279801, 65.5375, 0
214, 121.503364151, 70.15, 0
215, 129.0377851639, 74.5, 0
216, 136.5722061768, 78.85, 0
217, 144.5612905267, 83.4625, 0
218, 152.6153267819, 88.1125, 0
219, 161.0590744688, 92.9875, 0
220, 169.4378702504, 97.825, 0
221, 199.9493107565, 4.502569045214, 0
222, 199.5439509593, 13.49857901978, 0
223, 198.4814513158, 24.59905452625, 0
224, 196.8019251302, 35.62305805284, 0
225, 195.0105185426, 44.39479313788, 0
226, 192.8283475672, 53.07756941039, 0
227, 189.9835048658, 62.50014303105, 0
228, 186.6785315026, 71.77134439338, 0
229, 183.2795326234, 80.05381265974, 0
230, 179.513276045, 88.17586814773, 0
231, 175.3873086369, 96.12123578632, 0
232, 200, 0, 5
233, 173.2050807569, 100, 5
234, 43.30127018922, 25, 5
235, 50, 0, 5
236, 58.11510585841, 3.484266209971, 10
237, 53.01510585841, 3.484266209971, 10
238, 52.65178717769, 7.730904123901, 10
239, 52.0851322876, 11.61474284148, 10
240, 50.90323436638, 16.02103135448, 10
241, 55.46355682672, 10.85237113752, 10
242, 49.89769522592, 19.93879831396, 10
243, 48.09354692247, 23.78587188703, 10
244, 52.70513219762, 26.44837188703, 10
245, 53.89136279618, 18.65397681457, 10
246, 55.68956311312, 28.77169195644, 10
247, 60.04134076713, 31.28419195644, 10
248, 55.87025457121, 24.89506384347, 10
249, 64.45201155168, 31.17395087145, 10
250, 68.21922205814, 33.34895087145, 10
251, 63.26535627125, 27.10814282789, 10
252, 73.05345075724, 36.67237266599, 10
253, 76.95056507427, 38.92237266599, 10
254, 72.5102557549, 30.32132353743, 10
255, 80.89000015422, 41.8855989733, 10
256, 84.65721066068, 44.0605989733, 10
257, 81.28391953395, 36.60797163929, 10
258, 87.82514145135, 46.75245911, 10
259, 91.91711148424, 49.11495911, 10
260, 88.39128540457, 42.2630580833, 10
261, 96.33369190008, 50.16501718918, 10
262, 100.6205176488, 52.64001718918, 10
263, 95.97579661109, 46.00497629918, 10
264, 105.6253965509, 55.27218252884, 10
265, 109.8472703944, 57.70968252884, 10
266, 105.3972559291, 49.68719971802, 10
267, 113.2502340585, 61.01507560263, 10
268, 117.472107902, 63.45257560263, 10
269, 113.8050984953, 55.62475813147, 10
270, 121.734232312, 64.82212114841, 10
271, 125.5014428185, 66.99712114841, 10
272, 121.4701865695, 60.29969675104, 10
273, 129.8420038961, 69.38404730745, 10
274, 133.6092144025, 71.55904730745, 10
275, 130.0728720571, 64.05616845586, 10
276, 137.6922253179, 74.11053030385, 10
277, 141.4594358244, 76.28553030385, 10
278, 138.4964440501, 68.9945776113, 10
279, 145.6290203654, 78.83248280403, 10
280, 149.8508942088, 81.26998280403, 10
281, 146.7490395064, 74.09301310787, 10
282, 153.1957817032, 84.11754243145, 10
283, 157.0279441149, 86.33004243145, 10
284, 154.2635115418, 79.48752523548, 10
285, 171.5766745779, 93.92243745355, 10
286, 195.4716183585, 14.57023992858, 10
287, 195.7755097788, 10.07793784483, 10
288, 194.8190706708, 26.84981403896, 10
289, 195.636802201, 20.25181488739, 10
290, 191.9189346801, 16.83459487624, 10
291, 192.0869942808, 35.72655907837, 10
292, 192.8889706732, 31.29598779772, 10
293, 190.1540185249, 26.96234359381, 10
294, 190.4838720157, 44.94722748511, 10
295, 191.4717055044, 40.6080267086, 10
296, 187.6086297509, 36.2899849828, 10
297, 187.1265135893, 53.524465248, 10
298, 188.3214406945, 49.18335050403, 10
299, 184.8309096532, 45.40757563194, 10
300, 183.8823009358, 63.50348843231, 10
301, 185.5510775078, 58.43085968946, 10
302, 181.0930422504, 54.5500930923, 10
303, 180.8298036195, 72.52748942137, 10
304, 182.4455807875, 68.32482453462, 10
305, 178.0808860204, 64.27782363606, 10
306, 178.3055275166, 80.89695690928, 10
307, 180.0868138219, 76.81878360754, 10
308, 175.9011760745, 73.39045392455, 10
309, 172.8712595206, 88.766660812, 10
310, 174.8563491929, 84.72530621237, 10
311, 171.7090079531, 81.51009741381, 10
312, 166.9652446866, 90.49422335845, 10
313, 73.76633175229, 6.271614039393, 10
314, 62.89133175229, 6.271614039393, 10
315, 160.5271174914, 16.61969107587, 10
316, 136.8271174914, 16.61969107587, 10
317, 162.3536594115, 87.83172335845, 10
318, 126.4573895796, 34.57953073298, 10
319, 122.7302720882, 17.95983965711, 10
320, 162.9341143327, 83.8367657899, 10
321, 195.8768754188, 5.576509958715, 10
322, 186.1268754188, 5.576509958715, 10
323, 160.8567749244, 78.15035989535, 10
324, 166.182490221, 79.65204082235, 10
325, 169.6316685448, 75.82369151926, 10
326, 57.48455158465, 17.65624081135, 10
327, 56.4790124442, 21.57400777083, 10
328, 59.46344335969, 23.89732784024, 10
329, 73.55017191258, 23.77924545692, 10
330, 78.38440061168, 27.10266725147, 10
331, 82.12713871112, 31.85049573103, 10
332, 86.06657379107, 34.81372203834, 10
333, 83.1670548688, 25.30841765052, 10
334, 90.43291248833, 37.96696506617, 10
335, 93.600843279, 40.65882520287, 10
336, 91.27613166549, 33.20948915791, 10
337, 106.3764606017, 41.48735684628, 10
338, 111.3813395038, 44.11952218595, 10
339, 120.1337962933, 54.25321423954, 10
340, 124.3959207034, 55.62275978532, 10
341, 131.1067662264, 57.85729633526, 10
342, 135.4473273039, 60.2442224943, 10
343, 129.7703759502, 51.81081382376, 10
344, 139.2309364077, 64.23029271565, 10
345, 143.3139473231, 66.78177571205, 10
346, 140.2648305769, 58.03142059505, 10
347, 148.1476027302, 68.96711109496, 10
348, 152.3171872712, 71.51406359514, 10
349, 148.8820950878, 64.20282619931, 10
350, 157.51188743, 75.30280026792, 10
351, 179.2963906166, 37.77798652464, 10
352, 179.911679393, 32.89651889442, 10
353, 188.1330747868, 21.50650558514, 10
354, 187.9678909444, 15.82493062633, 10
355, 177.1339592953, 42.01410954355, 10
356, 85.19374050404, 0, 7.787650364419
357, 110.768740504, 0, 7.787650364419
358, 175.2153618616, 55.36209333106, 10
359, 176.7907979432, 50.45569888961, 10
360, 171.2562789065, 42.82610978231, 10
361, 171.6901326698, 65.59588456205, 10
362, 173.1268528182, 60.77454845974, 10
363, 168.8246085109, 56.68015425704, 10
364, 80.68715838468, 10.28029458548, 10
365, 72.50349013697, 16.55190862487, 10
366, 66.62934528018, 19.77056491084, 10
367, 182.3410155256, 10.24842066762, 10
368, 63.87411414423, 23.78708675524, 10
369, 98.01742369485, 41.70888328205, 10
370, 104.0015072696, 36.14120574997, 10
371, 158.9104506538, 70.17689825501, 10
372, 186.2029747892, 25.9526793439, 10
373, 177.0603843835, 0, 2.811467091773
374, 153.7353843835, 0, 7.811467091773
375, 156.425, 0, 5
376, 177.8907356549, 27.44068088575, 10
377, 89.51951808416, 10.27405205126, 10
378, 88.25667646884, 20.55434663674, 10
379, 170.3746583424, 71.53239733308, 10
380, 60.80643761069, 9.755880249364, 10
381, 60.2397827206, 13.63971896694, 10
382, 165.4206251401, 68.02912215676, 10
383, 160.2259249812, 64.24038548397, 10
384, 115.0945180842, 10.27405205126, 10
385, 117.7100373018, 42.74797829401, 10
386, 116.7308326292, 50.94782116575, 10
387, 104.7247901724, 28.23389170837, 10
388, 96.36575326554, 28.45541814413, 10
389, 160.4599338478, 56.90497796401, 10
390, 162.5484428912, 51.49252283533, 10
391, 153.9497593615, 59.05275406226, 10
392, 176.0497201293, 17.19226021813, 10
393, 156.0768376208, 33.811951294, 10
394, 62.82743236862, 16.55974992319, 10
395, 162.8916042434, 43.05093348928, 10
396, 147.3690016055, 42.47836434702, 10
397, 149.1161039544, 56.86741867935, 10
398, 145.3324948506, 52.881348458, 10
399, 138.517728228, 43.64236626272, 10
400, 131.806882705, 41.40782971278, 10
401, 91.99941456827, 25.3021751163, 10
402, 85.79374050404, 0, 2.787650364419
403, 108.125, 0, 5
404, 177.4353843835, 0, 7.811467091773
405, 53.10593802061, 3.626320619997, 0
406, 58.35593802061, 3.626320619997, 0
407, 52.74039242844, 7.885857687391, 0
408, 50.87217975254, 16.40123021545, 0
409, 52.04732331597, 12.02012293733, 0
410, 55.51880692874, 11.38690648994, 0
411, 47.37994648735, 23.759911214, 0
412, 49.18862223714, 19.90055555951, 0
413, 53.14218030087, 19.02049708394, 0
414, 51.9915317625, 26.422411214, 0
415, 60.30971724167, 29.74457494162, 0
416, 55.95793958766, 27.23207494162, 0
417, 55.42503061063, 23.32948615562, 0
418, 69.11144178272, 33.63569127824, 0
419, 65.34423127626, 31.46069127824, 0
420, 64.42595247038, 25.85526621986, 0
421, 77.51986561488, 38.88027515324, 0
422, 73.62275129785, 36.63027515324, 0
423, 73.97177602009, 30.56596643148, 0
424, 85.14337296624, 43.99518123526, 0
425, 81.37616245978, 41.82018123526, 0
426, 82.33938238012, 36.5004563885, 0
427, 93.16484729488, 48.92085622135, 0
428, 89.072877262, 46.55835622135, 0
429, 90.12518352077, 42.00353745662, 0
430, 101.0690984295, 54.11530086208, 0
431, 96.78227268073, 51.64030086208, 0
432, 97.67211320238, 47.28615708343, 0
433, 109.7678742488, 58.39926116108, 0
434, 105.5460004054, 55.96176116108, 0
435, 105.7664405642, 51.85206202317, 0
436, 117.4398351399, 63.93798676186, 0
437, 113.2179612965, 61.50048676186, 0
438, 113.6934295877, 56.79974792294, 0
439, 125.2376897797, 67.77686545232, 0
440, 121.4704792732, 65.60186545232, 0
441, 121.1741607687, 61.56485221418, 0
442, 132.3911556745, 72.51727493764, 0
443, 128.6239451681, 70.34227493764, 0
444, 128.5910602903, 65.79414038997, 0
445, 140.4026567852, 75.7429526344, 0
446, 136.6354462787, 73.5679526344, 0
447, 136.2216062829, 69.41022757204, 0
448, 149.2395166295, 80.61498357644, 0
449, 145.0176427861, 78.17748357644, 0
450, 145.080882888, 72.89543621084, 0
451, 157.4421094516, 85.40658126077, 0
452, 153.6099470399, 83.19408126077, 0
453, 154.0662992992, 77.90906483721, 0
454, 171.5766745779, 93.92243745355, 0
455, 195.4857344606, 10.32318554988, 0
456, 195.1818430403, 14.81548763362, 0
457, 195.7085433402, 20.8840419819, 0
458, 194.89081181, 27.48204113347, 0
459, 191.7009005011, 17.71206967579, 0
460, 194.1194839956, 31.52356158818, 0
461, 193.3175076032, 35.95413286883, 0
462, 191.4562729865, 27.82214447878, 0
463, 190.6290106462, 39.27201025185, 0
464, 189.6411771575, 43.61121102836, 0
465, 187.9964482151, 35.18154231651, 0
466, 187.5296348182, 48.75662035041, 0
467, 186.3347077131, 53.09773509439, 0
468, 183.1964089187, 43.64482902157, 0
469, 185.1379884897, 58.60409978713, 0
470, 183.4692119178, 63.67672852999, 0
471, 179.8881473561, 54.29660303636, 0
472, 182.7059169529, 68.68205535359, 0
473, 181.0901397849, 72.88472024033, 0
474, 177.9281331678, 64.80829455271, 0
475, 180.5975238987, 76.92474821409, 0
476, 178.8162375935, 81.00292151583, 0
477, 176.6722223167, 73.85364935006, 0
478, 175.3986587498, 84.57630125775, 0
479, 173.4135690775, 88.61765585738, 0
480, 172.7620275868, 81.46705706574, 0
481, 167.5075542436, 90.34521840383, 0
482, 63.28899468568, 6.585563252335, 0
483, 74.61399468568, 6.585563252335, 0
484, 136.973569447, 18.76384011143, 0
485, 161.273569447, 18.76384011143, 0
486, 162.8959689684, 87.68271840383, 0
487, 80.90759373548, 26.13848514401, 0
488, 76.39628422035, 23.14390126901, 0
489, 163.8905892264, 82.7642996646, 0
490, 185.4621001006, 5.82175766376, 0
491, 195.5871001006, 5.82175766376, 0
492, 67.76922793816, 20.37125453057, 0
493, 62.73471390357, 18.65513819395, 0
494, 74.70504565355, 15.94377324311, 0
495, 87.34802843557, 34.92207959142, 0
496, 83.49173159067, 31.98217350939, 0
497, 85.91623979093, 24.56010834693, 0
498, 94.74664635437, 40.17769456611, 0
499, 90.81714205861, 37.61451958003, 0
500, 91.96949126916, 33.09623670092, 0
501, 105.3667559312, 44.81503830653, 0
502, 101.7493305454, 42.09559366579, 0
503, 102.4412890832, 37.70657578921, 0
504, 109.8436579072, 46.66149860553, 0
505, 132.125, 0, 5
506, 120.1358427921, 55.87032863146, 0
507, 116.6857557445, 52.76910303068, 0
508, 116.2860711115, 45.73207931404, 0
509, 124.1664869254, 57.53420732192, 0
510, 133.9447196544, 63.74537686387, 0
511, 130.5584642661, 61.17996737854, 0
512, 129.5201462895, 55.48544379582, 0
513, 138.1890102586, 64.79605456062, 0
514, 180.125, 0, 5
515, 150.7995662434, 68.57587007938, 0
516, 146.1845802425, 66.14133913734, 0
517, 143.907693614, 60.47648842916, 0
518, 158.6877670914, 75.88890799604, 0
519, 154.3173366811, 73.30981031171, 0
520, 155.4210340356, 66.55571323821, 0
521, 168.5950002802, 79.90676625137, 0
522, 163.1411407634, 77.6306291083, 0
523, 163.3921781453, 73.03137458281, 0
524, 172.0125791239, 76.33338650944, 0
525, 187.2885041666, 18.33051317829, 0
526, 187.8152044664, 24.39906752656, 0
527, 187.043876652, 28.44058798128, 0
528, 82.55, 0, 5
529, 184.355379695, 31.75846536429, 0
530, 185.2856714371, 0, 7.510814280189
531, 195.0356714371, 0, 7.510814280189
532, 177.7731419848, 36.34902632945, 0
533, 175.6615996454, 41.49443565149, 0
534, 176.8205704217, 29.60807199422, 0
535, 173.6132335151, 50.01865998608, 0
536, 172.4165142918, 55.52502467882, 0
537, 168.1899665811, 42.72285729395, 0
538, 172.839993441, 62.12002084566, 0
539, 172.0766984761, 67.12534766926, 0
540, 166.5650796001, 57.84207779537, 0
541, 172.50519501, 72.29335853569, 0
542, 156.5177358027, 35.86315659111, 0
543, 174.9941663557, 17.09931647968, 0
544, 181.576404066, 12.50875551453, 0
545, 60.45186359382, 14.34614912228, 0
546, 57.10858812603, 19.83016081156, 0
547, 61.14493270629, 10.21188387233, 0
548, 167.4170552833, 69.60508482864, 0
549, 120.2969866371, 19.81223744444, 0
550, 126.1205560841, 38.57607755587, 0
551, 83.24105096787, 9.358209990775, 0
552, 107.2410509679, 9.358209990775, 0
553, 154.4693696724, 44.38738092569, 0
554, 147.3502012459, 49.67472661436, 0
555, 159.0224320244, 56.5344273172, 0
556, 162.9636816113, 67.86336371638, 0
557, 139.354631262, 48.32944203765, 0
558, 184.9106714371, 0, 2.510814280189
559, 159.4459111736, 63.12942348404, 0
560, 104.696622441, 32.76943966662, 0
561, 97.69393824996, 30.85154056694, 0
562, 91.64068677172, 22.31541221295, 0
563, 115.5496358039, 12.95720222218, 0
564, 94.22482462691, 28.15910057833, 0
565, 132.9626539214, 44.68368198103, 0
566, 195.0356714371, 0, 2.510814280189
567, 71.225, 0, 5
568, 60.35, 0, 5
569, 199.9493107565, 4.502569045214, 5
570, 175.3873086369, 96.12123578632, 5
571, 177.4826894119, 92.19487490709, 5
572, 199.5439509593, 13.49857901978, 5
573, 199.7972687199, 9.002855772239, 5
574, 197.5540228191, 31.18345824287, 5
575, 198.4814513158, 24.59905452625, 5
576, 196.8019251302, 35.62305805284, 5
577, 195.0105185426, 44.39479313788, 5
578, 195.9500700343, 40.04460080417, 5
579, 192.8283475672, 53.07756941039, 5
580, 193.9744030569, 48.7230023572, 5
581, 189.9835048658, 62.50014303105, 5
582, 191.5845488467, 57.40523184516, 5
583, 185.0154413669, 75.95581910436, 5
584, 186.6785315026, 71.77134439338, 5
585, 183.2795326234, 80.05381265974, 5
586, 179.513276045, 88.17586814773, 5
587, 199.1894858794, 17.98745993973, 5
588, 188.2469957029, 67.55048933086, 5
589, 181.4528687564, 84.11216570784, 5
590, 47.91285546437, 27.6625, 5
591, 169.4378702504, 97.825, 5
592, 52.52444073953, 30.325, 5
593, 56.87621839354, 32.8375, 5
594, 61.22799604756, 35.35, 5
595, 64.99520655402, 37.525, 5
596, 68.76241706048, 39.7, 5
597, 72.65953137751, 41.95, 5
598, 76.55664569454, 44.2, 5
599, 80.32385620101, 46.375, 5
600, 84.09106670747, 48.55, 5
601, 88.18303674035, 50.9125, 5
602, 92.27500677323, 53.275, 5
603, 96.56183252196, 55.75, 5
604, 100.8486582707, 58.225, 5
605, 105.0705321141, 60.6625, 5
606, 109.2924059576, 63.1, 5
607, 113.514279801, 65.5375, 5
608, 117.7361536445, 67.975, 5
609, 121.503364151, 70.15, 5
610, 125.2705746574, 72.325, 5
611, 129.0377851639, 74.5, 5
612, 136.5722061768, 78.85, 5
613, 140.3394166833, 81.025, 5
614, 144.5612905267, 83.4625, 5
615, 148.7831643702, 85.9, 5
616, 152.6153267819, 88.1125, 5
617, 156.4474891937, 90.325, 5
618, 161.0590744688, 92.9875, 5
619, 132.8049956703, 76.675, 5
620, 165.670659744, 95.65, 5
621, 49.81800945405, 4.262151338911, 5
622, 45.27473742264, 21.21787339276, 5
623, 49.27113741561, 8.506175272826, 5
624, 48.29629131445, 12.94095225513, 5
625, 46.91409585019, 17.29357136508, 5
626, 55.1, 0, 5
627, 186.1506461162, 39.83543615627, 5
628, 184.0391037769, 44.98084547832, 5
629, 178.4536957584, 36.44197006789, 5
630, 176.342153419, 41.58737938994, 5
631, 147.090823691, 68.42453342551, 5
632, 152.8095070464, 64.10496729405, 5
633, 142.2571682839, 66.2391980426, 5
634, 147.9758516393, 61.91963191114, 5
635, 189.4544318497, 31.63609114303, 5
636, 194.1194839956, 31.52356158818, 5
637, 193.3175076032, 35.95413286883, 5
638, 141.5226759263, 71.00348293825, 5
639, 177.5011241953, 29.70101573266, 5
640, 170.9188864851, 34.29157669781, 5
641, 185.8133633296, 28.21301419082, 5
642, 179.2311256194, 32.80357515597, 5
643, 117.1757893974, 59.41556236449, 5
644, 120.1681155542, 55.38491747223, 5
645, 113.7257023498, 56.31433676371, 5
646, 116.76515189, 52.07952439844, 5
647, 110.3227386856, 53.00894368993, 5
648, 65.34423127626, 31.46069127824, 5
649, 60.04134076713, 31.28419195644, 5
650, 55.68956311312, 28.77169195644, 5
651, 151.7058096919, 70.85906436755, 5
652, 146.1376619272, 73.43801388029, 5
653, 73.40247547948, 30.60806394422, 5
654, 74.44239163716, 24.06598586372, 5
655, 68.56824678038, 27.28464214968, 5
656, 100.8409578076, 48.53031805126, 5
657, 101.0690984295, 54.11530086208, 5
658, 96.78227268073, 51.64030086208, 5
659, 191.3845318473, 27.18991738427, 5
660, 92.07142400444, 33.38326444902, 5
661, 92.79470690722, 25.47595040741, 5
662, 87.70508530717, 30.2300214212, 5
663, 186.7659348927, 34.95396852605, 5
664, 130.8222173048, 60.40022307463, 5
665, 135.1627783824, 62.78714923367, 5
666, 136.1966725516, 56.58827711307, 5
667, 85.70951691946, 39.50578020856, 5
668, 80.89000015422, 41.8855989733, 5
669, 84.65721066068, 44.0605989733, 5
670, 180.5975238987, 76.92474821409, 5
671, 178.8162375935, 81.00292151583, 5
672, 175.6688963537, 77.78771271727, 5
673, 188.8391430733, 36.51755877326, 5
674, 86.55273609662, 34.74830430031, 5
675, 82.69643925173, 31.80839821828, 5
676, 181.0901397849, 72.88472024033, 5
677, 176.1615122399, 73.74768474351, 5
678, 176.9045020374, 69.45639055734, 5
679, 140.4026567852, 75.7429526344, 5
680, 69.11144178272, 33.63569127824, 5
681, 153.043515913, 56.76955977408, 5
682, 159.3196815327, 61.9571911958, 5
683, 98.51915388801, 23.23125427344, 5
684, 97.79587098523, 31.13856831504, 5
685, 93.49891054373, 40.37179745477, 5
686, 95.54053762748, 36.07570443763, 5
687, 97.91549095957, 41.42185553394, 5
688, 185.8371001006, 5.82175766376, 5
689, 187.6781156262, 16.07017833138, 5
690, 191.4639755194, 11.39826762247, 5
691, 109.7678742488, 58.39926116108, 5
692, 88.87744771013, 42.19764034527, 5
693, 90.91907479389, 37.90154732813, 5
694, 102.5432218185, 37.99360353731, 5
695, 104.9181751506, 43.33975463362, 5
696, 110.9022587253, 37.77207710155, 5
697, 175.3986587498, 84.57630125775, 5
698, 105.5460004054, 55.96176116108, 5
699, 172.2448588447, 71.93612771672, 5
700, 171.8163623107, 66.76811685029, 5
701, 121.4704792732, 65.60186545232, 5
702, 181.9660155256, 10.24842066762, 5
703, 168.0526907233, 80.05577120599, 5
704, 165.975351315, 74.36936531143, 5
705, 171.5018690471, 76.2274219029, 5
706, 92.80695200588, 44.76081533135, 5
707, 81.85322007456, 36.56587412654, 5
708, 97.22353242173, 45.81087341053, 5
709, 160.1626843394, 51.48221408541, 5
710, 166.4388499592, 56.66984550713, 5
711, 168.8021391862, 85.18944176228, 5
712, 172.25131751, 81.36109245919, 5
713, 118.7503964087, 60.35159634525, 7.36951871532
714, 117.4824838422, 61.89704844232, 4.768123105331
715, 119.0144421512, 64.87402074262, 7.36951871532
716, 115.9401495929, 60.47560330233, 7.398604390011
717, 116.2041953354, 64.9980276997, 7.398604390011
718, 78.9537011523, 27.06056973872, 5
719, 81.37820935255, 19.63850457625, 5
720, 87.82514145135, 46.75245911, 5
721, 118.7181236467, 60.83700750448, 2.36951871532
722, 115.9078768309, 60.96101446156, 2.398604390011
723, 119.0144421512, 64.87402074262, 2.36951871532
724, 116.2041953354, 64.9980276997, 2.398604390011
725, 118.1032620117, 8.769863412886, 2.878648599848
726, 94.19431297956, 18.12807340366, 2.878648599848
727, 102.5028978155, 21.72706563506, 2.878648599848
728, 175.6747201293, 17.19226021813, 5
729, 167.1903645869, 27.85567603283, 7.487572265064
730, 171.2656444576, 10.6634158147, 2.487572265064
731, 171.6406444576, 10.6634158147, 7.487572265064
732, 77.91378499461, 33.60264781923, 5
733, 166.5098108133, 27.76273229438, 2.487572265064
734, 122.74876778, 62.50088619494, 2.36951871532
735, 47.37994648735, 23.759911214, 5
736, 183.7924195915, 22.75717618215, 5
737, 150.3072464682, 75.98496638047, 5
738, 90.21056905203, 19.63226204204, 5
739, 72.75115307036, 16.86585783781, 5
740, 74.01399468568, 6.585563252335, 5
741, 82.64105096787, 9.358209990775, 5
742, 85.12094745198, 24.38633305582, 5
743, 181.8766724557, 49.21696849723, 5
744, 175.9989920669, 50.02896873599, 5
745, 195.8768754188, 5.576509958715, 5
746, 190.9125468559, 5.576509958715, 7.510814280189
747, 65.83032643797, 12.85717729173, 5
748, 60.8972697729, 9.89793465939, 5
749, 63.04133175229, 6.271614039393, 5
750, 195.7755097788, 10.07793784483, 5
751, 125.2376897797, 67.77686545232, 5
752, 91.91711148424, 49.11495911, 5
753, 128.6239451681, 70.34227493764, 5
754, 161.2709402611, 77.22689872466, 5
755, 154.6776768785, 78.56406406479, 5
756, 158.0225643729, 81.41162369222, 5
757, 63.07509530201, 16.87369913613, 5
758, 66.87700821358, 20.08451412378, 5
759, 179.1045171508, 59.62972763143, 5
760, 180.3012363741, 54.12336293869, 5
761, 174.8022728435, 55.53533342874, 5
762, 157.0279441149, 86.33004243145, 5
763, 191.6291593619, 17.07984258128, 5
764, 149.8508942088, 81.26998280403, 5
765, 153.1957817032, 84.11754243145, 5
766, 53.855780736, 19.04645775697, 5
767, 57.44896952447, 18.04872175374, 5
768, 54.86131987645, 15.12869079749, 5
769, 162.3536594115, 87.83172335845, 5
770, 163.3482796694, 82.91330461922, 5
771, 187.1265135893, 53.524465248, 5
772, 188.3214406945, 49.18335050403, 5
773, 161.521977643, 72.62764419917, 5
774, 173.4135690775, 88.61765585738, 5
775, 154.9287142604, 73.9648095393, 5
776, 168.8705203548, 42.8158010324, 5
777, 168.5273590026, 51.25739037845, 5
778, 60.20420066042, 14.03219990933, 5
779, 157.1982895763, 35.95610032956, 5
780, 152.7892139046, 29.42725592612, 2.487572265064
781, 190.6227715377, 5.82175766376, 2.510814280189
782, 151.667761949, 27.28310689057, 7.487572265064
783, 141.6756869384, 35.3835311873, 5
784, 171.5766745779, 93.92243745355, 5
785, 166.9652446866, 90.49422335845, 5
786, 49.1840947908, 19.91283764094, 5
787, 185.5510775078, 58.43085968946, 5
788, 73.05345075724, 36.67237266599, 5
789, 106.1549078921, 30.91704187928, 5
790, 147.9406444576, 10.6634158147, 7.487572265064
791, 137.948569447, 18.76384011143, 5
792, 190.4838720157, 44.94722748511, 5
793, 53.01510585841, 3.484266209971, 5
794, 52.1722232206, 22.54578310103, 5
795, 50.8676523062, 16.41351229688, 5
796, 55.76541200907, 21.5480470978, 5
797, 191.4717055044, 40.6080267086, 5
798, 64.15757599584, 27.39488323468, 5
799, 59.12306196125, 25.67876689806, 5
800, 55.15665413609, 24.86910317044, 5
801, 132.3911556745, 72.51727493764, 5
802, 133.1953744067, 67.40132224509, 5
803, 59.73181983423, 22.35771082542, 5
804, 156.3272774841, 68.83890752638, 5
805, 137.4396650109, 68.45199994185, 5
806, 162.8374519704, 66.69113142814, 5
807, 183.8823009358, 63.50348843231, 5
808, 178.3412221858, 64.63505445503, 5
809, 166.8623291084, 63.26484167397, 5
810, 187.4334881116, 26.18025313436, 5
811, 188.204815926, 22.13873267965, 5
812, 96.42437739174, 47.48025997209, 5
813, 148.490453561, 44.62251338257, 5
814, 192.1558596617, 23.14839692955, 5
815, 76.95056507427, 38.92237266599, 5
816, 124.4302399642, 56.75446301801, 5
817, 129.804695211, 52.94251705645, 5
818, 105.8458367097, 51.16248339093, 5
819, 123.093849688, 50.70798050651, 5
820, 128.8548133291, 65.01439608605, 5
821, 125.4685579408, 62.44898660073, 5
822, 111.982321492, 62.5605276997, 2.398604390011
823, 111.982321492, 62.5605276997, 7.398604390011
824, 112.4577897832, 57.85978886078, 2.398604390011
825, 136.6354462787, 73.5679526344, 5
826, 109.9230540527, 45.97191997329, 5
827, 116.2517518507, 44.60037608135, 5
828, 145.0479459291, 55.42427519737, 5
829, 139.9802816554, 60.57434733442, 5
830, 194.89081181, 27.48204113347, 5
831, 64.76633386882, 24.07382716204, 5
832, 92.7632585882, 10.27405205126, 7.787650364419
833, 165.546854781, 69.201354445, 5
834, 85.88479147191, 9.358209990775, 2.787650364419
835, 101.0727800958, 19.04391546415, 7.878648599848
836, 96.74700251573, 8.769863412886, 5.666298964267
837, 119.0782620117, 8.769863412886, 7.878648599848
838, 173.2530824591, 61.94678074798, 5
839, 139.6391801836, 45.78651529828, 5
840, 56.12104387901, 7.110586829968, 5
841, 58.20593802061, 3.626320619997, 5
842, 52.74261933989, 7.872958533927, 5
843, 55.55438898892, 10.99442554754, 5
844, 168.5760288411, 10.6634158147, 5.299039356837
845, 51.9915317625, 26.422411214, 5
846, 145.0176427861, 78.17748357644, 5
847, 195.4716183585, 14.57023992858, 5
848, 168.9508381518, 57.85238654529, 5
849, 94.10326201169, 8.769863412886, 2.878648599848
850, 195.636802201, 20.25181488739, 5
851, 108.7085340999, 26.72970306999, 7.878648599848
852, 132.9283346606, 43.55197874833, 5
853, 127.5788415352, 36.72367976853, 5
854, 121.7552720882, 17.95983965711, 5
855, 121.7104498034, 56.80636261222, 2.36951871532
856, 123.0125208188, 61.72114189103, 7.36951871532
857, 52.04955022742, 12.00722378387, 5
858, 182.7059169529, 68.68205535359, 5


** Volume elements
*Element, TYPE=C3D10, ELSET=Evolumes
385, 133, 90, 134, 108, 627, 628, 468, 629, 351, 630
386, 127, 107, 106, 147, 631, 349, 633, 516, 632, 634
387, 132, 89, 32, 33, 635, 292, 636, 637, 291, 189
388, 127, 107, 84, 106, 631, 347, 638, 633, 349, 345
389, 150, 108, 89, 151, 639, 352, 641, 534, 640, 642
390, 145, 124, 123, 81, 506, 438, 507, 644, 643, 645
391, 145, 81, 123, 80, 644, 645, 507, 646, 269, 647
392, 47, 48, 16, 118, 207, 595, 594, 419, 418, 648
393, 46, 47, 15, 74, 206, 593, 592, 650, 649, 246
394, 132, 64, 33, 32, 461, 578, 637, 636, 576, 189
395, 127, 107, 128, 84, 631, 651, 450, 638, 347, 652
396, 101, 76, 118, 75, 330, 653, 654, 329, 254, 655
397, 21, 79, 20, 122, 262, 261, 176, 657, 656, 658
398, 89, 132, 32, 88, 635, 636, 292, 293, 659, 288
399, 127, 107, 147, 128, 631, 632, 516, 450, 651, 515
400, 103, 142, 112, 102, 660, 661, 388, 336, 662, 401
401, 64, 132, 63, 32, 461, 460, 224, 576, 636, 574
402, 133, 132, 89, 150, 465, 635, 663, 529, 527, 641
403, 83, 82, 146, 105, 275, 664, 665, 342, 341, 666
404, 49, 120, 50, 77, 425, 424, 209, 668, 667, 669
405, 137, 37, 38, 94, 670, 194, 671, 672, 307, 306
406, 133, 90, 89, 132, 627, 296, 663, 465, 673, 635
407, 120, 102, 119, 142, 674, 675, 426, 495, 662, 496
408, 94, 37, 93, 136, 307, 303, 308, 677, 676, 678
409, 127, 57, 56, 26, 445, 216, 446, 679, 613, 612
410, 37, 69, 68, 137, 585, 229, 583, 670, 476, 475
411, 16, 17, 75, 118, 172, 250, 249, 648, 680, 655
412, 113, 107, 111, 147, 391, 383, 389, 681, 632, 682
413, 103, 112, 142, 154, 388, 661, 660, 684, 683, 564
414, 143, 78, 103, 79, 685, 335, 686, 687, 263, 369
415, 19, 18, 50, 77, 174, 599, 600, 256, 255, 669
416, 109, 12, 130, 87, 367, 688, 689, 354, 322, 690
417, 22, 81, 80, 123, 267, 269, 265, 691, 645, 647
418, 67, 37, 68, 136, 584, 583, 228, 472, 676, 473
419, 143, 78, 120, 103, 685, 692, 499, 686, 335, 693
420, 79, 103, 144, 98, 369, 694, 695, 337, 370, 696
421, 137, 138, 38, 69, 480, 697, 671, 476, 478, 589
422, 52, 53, 21, 123, 212, 605, 604, 434, 433, 698
423, 149, 136, 93, 153, 541, 678, 699, 548, 539, 700
424, 55, 54, 125, 23, 214, 440, 439, 609, 608, 701
425, 109, 43, 130, 12, 702, 490, 689, 367, 514, 688
426, 149, 95, 99, 94, 703, 324, 704, 705, 311, 325
427, 143, 78, 121, 120, 685, 706, 498, 499, 692, 429
428, 120, 102, 77, 119, 674, 332, 667, 426, 675, 707
429, 143, 78, 79, 121, 685, 263, 687, 498, 706, 708
430, 111, 113, 147, 152, 389, 681, 682, 710, 709, 555
431, 18, 49, 50, 77, 598, 209, 599, 255, 668, 669
432, 138, 95, 149, 94, 711, 703, 521, 712, 311, 705
433, 81, 160, 161, 23, 713, 714, 716, 268, 715, 717
434, 101, 119, 141, 118, 718, 487, 719, 654, 423, 488
435, 78, 19, 50, 77, 258, 600, 720, 260, 256, 669
436, 161, 160, 81, 124, 714, 713, 716, 722, 721, 643
437, 161, 160, 54, 23, 714, 723, 724, 717, 715, 608
438, 158, 42, 141, 154, 725, 552, 726, 727, 563, 562
439, 43, 108, 12, 109, 728, 392, 514, 702, 376, 367
440, 43, 108, 159, 12, 728, 729, 730, 514, 392, 731
441, 101, 102, 119, 76, 333, 675, 718, 330, 331, 732
442, 43, 108, 151, 159, 728, 640, 543, 730, 729, 733
443, 54, 160, 161, 124, 723, 714, 724, 436, 721, 722
444, 54, 160, 125, 23, 723, 734, 440, 608, 715, 701
445, 3, 45, 4, 116, 622, 204, 234, 735, 412, 411
446, 43, 109, 130, 150, 702, 689, 490, 544, 736, 525
447, 85, 84, 128, 107, 281, 652, 737, 348, 347, 651
448, 112, 142, 154, 141, 661, 564, 683, 738, 497, 562
449, 125, 160, 54, 124, 734, 723, 440, 441, 721, 436
450, 78, 50, 120, 77, 720, 424, 692, 260, 669, 667
451, 139, 101, 10, 141, 739, 364, 740, 494, 719, 741
452, 141, 102, 101, 112, 742, 333, 719, 738, 401, 378
453, 47, 16, 15, 74, 594, 171, 593, 649, 247, 246
454, 52, 21, 122, 123, 604, 657, 430, 434, 698, 435
455, 108, 91, 134, 110, 355, 743, 630, 360, 359, 744
456, 87, 6, 5, 155, 745, 232, 321, 746, 566, 531
457, 141, 102, 119, 101, 742, 675, 487, 719, 333, 718
458, 141, 102, 142, 119, 742, 662, 497, 487, 675, 496
459, 17, 76, 75, 118, 252, 254, 250, 680, 653, 655
460, 139, 96, 114, 40, 747, 748, 547, 482, 749, 406
461, 87, 6, 61, 5, 745, 221, 750, 321, 232, 569
462, 24, 55, 125, 23, 610, 439, 751, 179, 609, 701
463, 121, 78, 51, 50, 706, 752, 427, 428, 720, 210
464, 55, 24, 125, 126, 610, 751, 439, 443, 753, 444
465, 141, 102, 112, 142, 742, 401, 738, 497, 662, 661
466, 85, 99, 129, 86, 350, 754, 755, 284, 323, 756
467, 96, 139, 100, 75, 747, 757, 394, 366, 758, 368
468, 135, 92, 110, 134, 759, 358, 761, 471, 760, 744
469, 139, 101, 118, 75, 739, 654, 492, 758, 329, 655
470, 28, 59, 86, 27, 617, 762, 283, 183, 616, 282
471, 109, 88, 87, 130, 353, 290, 354, 689, 763, 690
472, 85, 58, 86, 129, 764, 765, 284, 755, 452, 756
473, 96, 139, 10, 40, 747, 740, 313, 749, 482, 567
474, 73, 115, 100, 72, 766, 767, 327, 245, 768, 326
475, 138, 59, 129, 95, 486, 451, 489, 711, 769, 770
476, 66, 91, 65, 34, 771, 772, 226, 579, 298, 580
477, 139, 96, 101, 75, 747, 365, 739, 758, 366, 329
478, 87, 6, 130, 61, 745, 491, 690, 750, 221, 455
479, 148, 149, 129, 99, 523, 522, 518, 773, 704, 754
480, 69, 39, 138, 38, 586, 774, 478, 589, 195, 697
481, 85, 129, 99, 148, 755, 754, 350, 775, 518, 773
482, 113, 108, 152, 110, 395, 776, 709, 390, 360, 777
483, 115, 139, 100, 96, 545, 757, 767, 778, 747, 394
484, 140, 151, 108, 159, 542, 640, 779, 780, 733, 729
485, 51, 52, 20, 122, 211, 603, 602, 431, 430, 658
486, 144, 103, 143, 154, 694, 686, 503, 560, 684, 561
487, 87, 5, 61, 30, 321, 569, 750, 287, 186, 573
488, 137, 37, 94, 136, 670, 307, 672, 477, 676, 677
489, 87, 6, 155, 130, 745, 566, 746, 690, 491, 781
490, 97, 108, 12, 159, 393, 392, 315, 782, 729, 731
491, 97, 108, 159, 140, 393, 729, 782, 783, 779, 780
492, 138, 60, 39, 70, 481, 784, 774, 479, 454, 571
493, 138, 60, 95, 39, 481, 785, 711, 774, 784, 309
494, 116, 14, 3, 45, 786, 169, 735, 412, 625, 622
495, 58, 85, 86, 27, 764, 284, 765, 615, 280, 282
496, 91, 66, 92, 35, 771, 787, 302, 297, 582, 301
497, 60, 29, 95, 39, 620, 312, 785, 784, 285, 309
498, 58, 59, 86, 129, 218, 762, 765, 452, 451, 756
499, 17, 48, 76, 118, 596, 788, 252, 680, 418, 653
500, 137, 149, 136, 94, 524, 541, 477, 672, 705, 677
501, 112, 103, 98, 154, 388, 370, 387, 683, 684, 789
502, 11, 97, 12, 159, 316, 315, 165, 790, 782, 731
503, 59, 58, 86, 27, 218, 765, 762, 616, 615, 282
504, 5, 12, 87, 155, 166, 322, 321, 531, 530, 746
505, 60, 138, 95, 59, 481, 711, 785, 219, 486, 769
506, 11, 97, 159, 140, 316, 782, 790, 791, 783, 780
507, 91, 90, 134, 65, 299, 628, 743, 772, 792, 466
508, 71, 7, 8, 9, 237, 235, 793, 236, 162, 626
509, 29, 60, 95, 28, 620, 785, 312, 184, 618, 317
510, 116, 14, 73, 3, 786, 242, 794, 735, 169, 243
511, 116, 14, 115, 73, 786, 795, 413, 794, 242, 766
512, 116, 100, 73, 115, 796, 327, 794, 413, 767, 766
513, 41, 139, 10, 141, 483, 740, 528, 551, 494, 741
514, 90, 132, 64, 33, 673, 461, 797, 295, 637, 578
515, 65, 90, 64, 33, 792, 797, 225, 577, 295, 578
516, 69, 39, 70, 138, 586, 571, 230, 478, 774, 479
517, 77, 102, 76, 119, 332, 331, 257, 707, 675, 732
518, 132, 90, 89, 33, 673, 296, 635, 637, 295, 291
519, 116, 14, 45, 115, 786, 625, 412, 413, 795, 408
520, 118, 47, 117, 74, 419, 415, 420, 798, 649, 799
521, 37, 69, 137, 38, 585, 476, 670, 194, 589, 671
522, 103, 143, 154, 142, 686, 561, 684, 660, 500, 564
523, 116, 100, 74, 73, 796, 328, 800, 794, 327, 248
524, 92, 91, 110, 134, 302, 359, 358, 760, 743, 744
525, 24, 25, 83, 126, 180, 274, 273, 753, 801, 802
526, 116, 100, 117, 74, 796, 803, 417, 800, 328, 799
527, 116, 100, 115, 117, 796, 767, 413, 417, 803, 546
528, 85, 107, 128, 148, 348, 651, 737, 775, 804, 519
529, 127, 84, 83, 106, 638, 278, 805, 633, 345, 344
530, 147, 111, 148, 107, 682, 806, 520, 632, 383, 804
531, 24, 25, 126, 56, 180, 801, 753, 611, 619, 442
532, 136, 67, 92, 135, 472, 807, 808, 474, 470, 759
533, 147, 148, 111, 153, 520, 806, 682, 559, 556, 809
534, 132, 109, 150, 131, 810, 736, 527, 462, 811, 526
535, 103, 120, 143, 142, 693, 499, 686, 660, 495, 500
536, 43, 159, 140, 11, 730, 780, 485, 375, 790, 791
537, 60, 59, 95, 28, 219, 769, 785, 618, 617, 317
538, 21, 22, 80, 123, 177, 265, 264, 698, 691, 647
539, 78, 122, 20, 79, 812, 658, 259, 263, 656, 261
540, 132, 109, 89, 150, 810, 372, 635, 527, 736, 641
541, 139, 41, 10, 40, 483, 528, 740, 482, 198, 567
542, 107, 148, 99, 111, 804, 773, 371, 383, 806, 382
543, 51, 19, 78, 20, 601, 258, 752, 602, 175, 259
544, 132, 109, 88, 89, 810, 353, 659, 635, 372, 293
545, 113, 147, 152, 140, 681, 555, 709, 813, 554, 553
546, 115, 139, 117, 100, 545, 493, 546, 767, 757, 803
547, 132, 109, 131, 88, 810, 811, 462, 659, 353, 814
548, 78, 122, 51, 20, 812, 431, 752, 259, 658, 602
549, 18, 49, 76, 17, 598, 815, 253, 173, 597, 252
550, 49, 48, 76, 17, 208, 788, 815, 597, 596, 252
551, 82, 145, 146, 105, 816, 512, 664, 341, 817, 666
552, 148, 107, 128, 147, 804, 651, 519, 520, 632, 515
553, 48, 49, 76, 119, 208, 815, 788, 422, 421, 732
554, 21, 123, 80, 122, 698, 647, 264, 657, 435, 818
555, 145, 82, 104, 105, 816, 340, 819, 817, 341, 343
556, 138, 137, 38, 94, 480, 671, 697, 712, 672, 306
557, 59, 95, 86, 129, 769, 320, 762, 451, 770, 756
558, 91, 66, 35, 34, 771, 582, 297, 298, 579, 191
559, 53, 22, 21, 123, 606, 177, 605, 433, 691, 698
560, 24, 126, 82, 125, 753, 820, 271, 751, 444, 821
561, 95, 59, 86, 28, 769, 762, 320, 317, 617, 283
562, 22, 53, 161, 123, 606, 822, 823, 691, 433, 824
563, 25, 127, 56, 26, 825, 446, 619, 181, 679, 612
564, 90, 65, 34, 33, 792, 580, 294, 295, 577, 190
565, 55, 24, 126, 56, 610, 753, 443, 215, 611, 442
566, 81, 145, 104, 80, 644, 819, 339, 269, 646, 386
567, 78, 122, 121, 51, 812, 432, 706, 752, 431, 427
568, 127, 25, 56, 126, 825, 619, 446, 447, 801, 442
569, 144, 80, 98, 104, 826, 338, 696, 827, 386, 385
570, 95, 138, 38, 94, 711, 697, 310, 311, 712, 306
571, 78, 122, 79, 121, 812, 656, 263, 706, 432, 708
572, 22, 161, 81, 123, 823, 716, 267, 691, 824, 645
573, 146, 113, 106, 105, 828, 397, 829, 666, 398, 346
574, 106, 127, 147, 146, 633, 516, 634, 829, 513, 517
575, 135, 110, 152, 134, 761, 777, 536, 471, 744, 535
576, 83, 127, 106, 146, 805, 633, 344, 665, 513, 829
577, 7, 13, 71, 8, 167, 238, 237, 235, 621, 793
578, 53, 124, 161, 123, 437, 722, 822, 433, 438, 824
579, 161, 124, 81, 123, 722, 643, 716, 824, 438, 645
580, 126, 24, 82, 83, 753, 271, 820, 802, 273, 275
581, 53, 54, 22, 161, 213, 607, 606, 822, 724, 823
582, 121, 79, 143, 144, 708, 687, 498, 502, 695, 503
583, 103, 144, 98, 154, 694, 696, 370, 684, 560, 789
584, 90, 133, 65, 64, 627, 464, 792, 797, 463, 225
585, 133, 90, 132, 64, 627, 673, 465, 463, 797, 461
586, 113, 107, 147, 106, 391, 632, 681, 397, 349, 634
587, 132, 131, 32, 88, 462, 830, 636, 659, 814, 288
588, 146, 106, 113, 147, 829, 397, 828, 517, 634, 681
589, 100, 118, 139, 117, 831, 492, 757, 803, 420, 493
590, 131, 132, 32, 63, 462, 636, 830, 458, 460, 574
591, 91, 66, 65, 134, 771, 226, 772, 743, 467, 466
592, 67, 66, 92, 135, 227, 787, 807, 470, 469, 759
593, 149, 94, 99, 93, 705, 325, 704, 699, 308, 379
594, 106, 83, 146, 105, 344, 665, 829, 346, 342, 666
595, 53, 54, 161, 124, 213, 724, 822, 437, 436, 722
596, 156, 112, 10, 11, 832, 377, 356, 357, 384, 164
597, 149, 148, 153, 99, 523, 556, 548, 704, 773, 833
598, 138, 95, 38, 39, 711, 310, 697, 774, 309, 195
599, 54, 23, 22, 161, 608, 178, 607, 724, 717, 823
600, 156, 112, 141, 10, 832, 738, 834, 356, 377, 741
601, 23, 24, 82, 125, 179, 271, 270, 701, 751, 821
602, 112, 158, 156, 141, 835, 836, 832, 738, 726, 834
603, 72, 115, 100, 96, 768, 767, 326, 381, 778, 394
604, 79, 144, 122, 80, 695, 501, 656, 266, 826, 818
605, 11, 156, 112, 158, 357, 832, 384, 837, 836, 835
606, 92, 153, 93, 136, 838, 700, 305, 808, 539, 678
607, 100, 118, 75, 139, 831, 655, 368, 757, 492, 758
608, 92, 153, 111, 93, 838, 809, 362, 305, 700, 361
609, 48, 17, 16, 118, 596, 172, 595, 418, 680, 648
610, 100, 118, 74, 75, 831, 798, 328, 368, 655, 251
611, 29, 60, 1, 39, 620, 591, 185, 285, 784, 196
612, 141, 10, 112, 101, 741, 377, 738, 719, 364, 378
613, 145, 105, 140, 146, 817, 839, 565, 512, 666, 557
614, 92, 153, 136, 135, 838, 539, 808, 759, 538, 474
615, 114, 96, 71, 9, 748, 380, 840, 841, 314, 236
616, 13, 71, 114, 72, 238, 840, 842, 239, 241, 843
617, 100, 118, 117, 74, 831, 420, 803, 328, 798, 799
618, 37, 137, 68, 136, 670, 475, 583, 676, 477, 473
619, 13, 71, 8, 114, 238, 793, 621, 842, 840, 405
620, 22, 23, 81, 161, 178, 268, 267, 823, 717, 716
621, 67, 36, 92, 35, 588, 300, 807, 581, 192, 301
622, 43, 151, 140, 159, 543, 542, 485, 730, 733, 780
623, 152, 108, 134, 110, 776, 630, 535, 777, 360, 744
624, 157, 11, 12, 159, 374, 165, 404, 844, 790, 731
625, 116, 74, 46, 15, 800, 650, 414, 845, 246, 592
626, 101, 119, 118, 76, 718, 423, 654, 330, 732, 653
627, 127, 26, 128, 57, 679, 846, 450, 445, 613, 449
628, 111, 147, 153, 152, 682, 559, 809, 710, 555, 540
629, 127, 128, 26, 84, 450, 846, 679, 638, 652, 277
630, 51, 19, 50, 78, 601, 600, 210, 752, 258, 720
631, 79, 121, 122, 144, 708, 432, 656, 695, 502, 501
632, 31, 30, 87, 62, 187, 287, 286, 587, 572, 847
633, 25, 127, 83, 126, 825, 805, 274, 801, 447, 802
634, 157, 43, 11, 159, 373, 375, 374, 844, 730, 790
635, 39, 2, 60, 1, 570, 220, 784, 196, 233, 591
636, 52, 21, 20, 122, 604, 176, 603, 430, 657, 658
637, 66, 67, 92, 35, 227, 807, 787, 582, 581, 301
638, 137, 138, 149, 94, 480, 521, 524, 672, 712, 705
639, 91, 90, 65, 34, 299, 792, 772, 298, 294, 580
640, 116, 74, 117, 46, 800, 799, 417, 414, 650, 416
641, 30, 61, 87, 62, 573, 750, 287, 572, 222, 847
642, 110, 153, 92, 135, 848, 838, 358, 761, 538, 759
643, 116, 74, 15, 73, 800, 246, 845, 794, 248, 244
644, 39, 2, 70, 60, 570, 231, 571, 784, 220, 454
645, 10, 96, 40, 9, 313, 749, 567, 163, 314, 568
646, 96, 72, 114, 71, 381, 843, 748, 380, 241, 840
647, 131, 63, 32, 62, 458, 574, 830, 457, 223, 575
648, 118, 74, 16, 47, 798, 247, 648, 419, 649, 594
649, 125, 145, 146, 82, 509, 512, 511, 821, 816, 664
650, 118, 16, 74, 75, 648, 247, 798, 655, 249, 251
651, 103, 78, 120, 77, 335, 692, 693, 334, 260, 667
652, 150, 109, 130, 131, 736, 689, 525, 526, 811, 459
653, 93, 149, 153, 99, 699, 548, 700, 379, 704, 833
654, 110, 153, 111, 92, 848, 809, 363, 358, 838, 362
655, 128, 26, 58, 57, 846, 614, 448, 449, 613, 217
656, 110, 153, 152, 111, 848, 540, 777, 363, 809, 710
657, 95, 99, 86, 129, 324, 323, 320, 770, 754, 756
658, 79, 21, 80, 122, 262, 264, 266, 656, 657, 818
659, 43, 6, 130, 155, 201, 491, 490, 558, 566, 781
660, 139, 115, 114, 96, 545, 410, 547, 747, 778, 748
661, 12, 155, 130, 87, 530, 781, 688, 322, 746, 690
662, 128, 58, 26, 85, 448, 614, 846, 737, 764, 279
663, 103, 120, 102, 77, 693, 674, 336, 334, 667, 332
664, 115, 72, 114, 96, 768, 843, 410, 778, 381, 748
665, 90, 133, 134, 65, 627, 468, 628, 792, 464, 466
666, 79, 103, 143, 144, 369, 686, 687, 695, 694, 503
667, 48, 119, 76, 118, 422, 732, 788, 418, 423, 653
668, 110, 153, 135, 152, 848, 538, 761, 777, 540, 536
669, 58, 85, 128, 129, 764, 737, 448, 452, 755, 453
670, 109, 131, 88, 130, 811, 814, 353, 689, 459, 763
671, 158, 141, 41, 156, 726, 551, 849, 836, 834, 402
672, 43, 12, 159, 157, 514, 731, 730, 373, 404, 844
673, 90, 91, 134, 108, 299, 743, 628, 351, 355, 630
674, 88, 131, 62, 130, 814, 457, 850, 763, 459, 456
675, 127, 25, 83, 84, 825, 274, 805, 638, 276, 278
676, 98, 158, 11, 112, 851, 837, 319, 387, 835, 384
677, 97, 105, 140, 104, 399, 839, 783, 400, 343, 852
678, 93, 99, 153, 111, 379, 833, 700, 361, 382, 809
679, 61, 130, 87, 62, 455, 690, 750, 222, 456, 847
680, 104, 144, 140, 98, 827, 550, 852, 385, 696, 853
681, 42, 41, 11, 158, 199, 403, 505, 725, 849, 837
682, 94, 149, 136, 93, 705, 541, 677, 308, 699, 678
683, 98, 97, 140, 104, 318, 783, 853, 385, 400, 852
684, 85, 148, 128, 129, 775, 519, 737, 755, 518, 453
685, 121, 78, 50, 120, 706, 720, 428, 429, 692, 424
686, 144, 123, 122, 80, 504, 435, 501, 826, 647, 818
687, 85, 107, 148, 99, 348, 804, 775, 350, 371, 773
688, 96, 114, 40, 9, 748, 406, 749, 314, 841, 568
689, 113, 111, 110, 152, 389, 363, 390, 709, 710, 777
690, 71, 114, 9, 8, 840, 841, 236, 793, 405, 626
691, 85, 84, 26, 128, 281, 277, 279, 737, 652, 846
692, 127, 25, 84, 26, 825, 276, 638, 679, 181, 277
693, 82, 146, 126, 83, 664, 510, 820, 275, 665, 802
694, 104, 140, 144, 145, 852, 550, 827, 819, 565, 508
695, 3, 73, 116, 15, 243, 794, 735, 170, 244, 845
696, 85, 58, 26, 27, 764, 614, 279, 280, 615, 182
697, 4, 3, 116, 15, 234, 735, 411, 590, 170, 845
698, 105, 113, 140, 146, 398, 813, 839, 666, 828, 557
699, 133, 90, 108, 89, 627, 351, 629, 663, 296, 352
700, 82, 126, 146, 125, 820, 510, 664, 821, 444, 511
701, 113, 147, 140, 146, 681, 554, 813, 828, 517, 557
702, 32, 88, 62, 31, 288, 850, 575, 188, 289, 587
703, 47, 46, 117, 74, 206, 416, 415, 649, 650, 799
704, 12, 43, 130, 155, 514, 490, 688, 530, 558, 781
705, 49, 120, 77, 119, 425, 667, 668, 421, 426, 707
706, 126, 127, 83, 146, 447, 805, 802, 510, 513, 665
707, 139, 101, 141, 118, 739, 719, 494, 492, 654, 488
708, 97, 113, 140, 105, 396, 813, 783, 399, 398, 839
709, 32, 62, 88, 131, 575, 850, 288, 830, 457, 814
710, 82, 145, 104, 81, 816, 819, 340, 272, 644, 339
711, 139, 96, 10, 101, 747, 313, 740, 739, 365, 364
712, 149, 95, 129, 99, 703, 770, 522, 704, 324, 754
713, 138, 95, 129, 149, 711, 770, 489, 521, 703, 522
714, 105, 145, 140, 104, 817, 565, 839, 343, 819, 852
715, 76, 77, 49, 18, 257, 668, 815, 253, 255, 598
716, 99, 148, 153, 111, 773, 556, 833, 382, 806, 809
717, 46, 4, 116, 15, 205, 411, 414, 592, 590, 845
718, 79, 144, 80, 98, 695, 826, 266, 337, 696, 338
719, 9, 114, 40, 8, 841, 406, 568, 626, 405, 197
720, 88, 31, 87, 62, 289, 286, 290, 850, 587, 847
721, 76, 49, 77, 119, 815, 668, 257, 732, 421, 707
722, 151, 152, 140, 108, 537, 553, 542, 640, 776, 779
723, 66, 92, 134, 91, 787, 760, 467, 771, 302, 743
724, 66, 134, 92, 135, 467, 760, 787, 469, 471, 759
725, 98, 158, 42, 11, 851, 725, 854, 319, 837, 505
726, 42, 41, 158, 141, 199, 849, 725, 552, 551, 726
727, 144, 145, 80, 104, 508, 646, 826, 827, 819, 386
728, 144, 80, 145, 123, 826, 646, 508, 504, 647, 507
729, 82, 145, 81, 160, 816, 644, 272, 856, 855, 713
730, 114, 44, 8, 13, 407, 202, 405, 842, 623, 621
731, 115, 44, 114, 13, 409, 407, 410, 857, 623, 842
732, 10, 41, 141, 156, 528, 551, 741, 356, 402, 834
733, 160, 145, 81, 124, 855, 644, 713, 721, 506, 643
734, 154, 158, 112, 141, 727, 835, 683, 562, 726, 738
735, 37, 36, 93, 136, 193, 304, 303, 676, 858, 678
736, 43, 42, 11, 140, 200, 505, 375, 485, 484, 791
737, 88, 62, 87, 130, 850, 847, 290, 763, 456, 690
738, 125, 23, 160, 82, 701, 715, 734, 821, 270, 856
739, 98, 158, 154, 42, 851, 727, 789, 854, 725, 563
740, 160, 23, 81, 82, 715, 268, 713, 856, 270, 272
741, 98, 97, 11, 140, 318, 316, 319, 853, 783, 791
742, 11, 158, 41, 156, 837, 849, 403, 357, 836, 402
743, 98, 158, 112, 154, 851, 835, 387, 789, 727, 683
744, 67, 37, 136, 36, 584, 676, 472, 588, 193, 858
745, 103, 120, 142, 102, 693, 495, 660, 336, 674, 662
746, 14, 72, 13, 115, 240, 239, 168, 795, 768, 857
747, 44, 45, 13, 115, 203, 624, 623, 409, 408, 857
748, 45, 14, 13, 115, 625, 168, 624, 408, 795, 857
749, 144, 154, 42, 98, 560, 563, 549, 696, 789, 854
750, 140, 144, 42, 98, 550, 549, 484, 853, 696, 854
751, 150, 108, 109, 89, 639, 376, 736, 641, 352, 372
752, 125, 145, 160, 124, 509, 855, 734, 441, 506, 721
753, 115, 114, 72, 13, 410, 843, 768, 857, 842, 239
754, 72, 73, 115, 14, 245, 766, 768, 240, 242, 795
755, 150, 108, 43, 109, 639, 728, 544, 736, 376, 702
756, 150, 108, 151, 43, 639, 640, 534, 544, 728, 543
757, 133, 150, 89, 151, 529, 641, 663, 532, 534, 642
758, 108, 133, 89, 151, 629, 663, 352, 640, 532, 642
759, 140, 113, 97, 108, 813, 396, 783, 779, 395, 393
760, 134, 133, 108, 151, 468, 629, 630, 533, 532, 640
761, 113, 152, 108, 140, 709, 776, 395, 813, 553, 779
762, 152, 134, 108, 151, 535, 630, 776, 537, 533, 640
763, 125, 145, 82, 160, 509, 816, 821, 734, 855, 856
764, 11, 140, 42, 98, 791, 484, 505, 319, 853, 854
765, 36, 136, 92, 93, 858, 808, 300, 304, 678, 305
766, 67, 136, 92, 36, 472, 808, 807, 588, 858, 300

** Define element set Eall
*ELSET, ELSET=Eall
Evolumes



***********************************************************
** Element sets for materials and FEM element type (solid, shell, beam, fluid)
*ELSET,ELSET=MaterialSolidSolid
Evolumes

***********************************************************
** constraints centrif element sets
** ConstraintCentrif
*ELSET,ELSET=ConstraintCentrif
385,
386,
387,
388,
389,
390,
391,
392,
393,
394,
395,
396,
397,
398,
399,
400,
401,
402,
403,
404,
405,
406,
407,
408,
409,
410,
411,
412,
413,
414,
415,
416,
417,
418,
419,
420,
421,
422,
423,
424,
425,
426,
427,
428,
429,
430,
431,
432,
433,
434,
435,
436,
437,
438,
439,
440,
441,
442,
443,
444,
445,
446,
447,
448,
449,
450,
451,
452,
453,
454,
455,
456,
457,
458,
459,
460,
461,
462,
463,
464,
465,
466,
467,
468,
469,
470,
471,
472,
473,
474,
475,
476,
477,
478,
479,
480,
481,
482,
483,
484,
485,
486,
487,
488,
489,
490,
491,
492,
493,
494,
495,
496,
497,
498,
499,
500,
501,
502,
503,
504,
505,
506,
507,
508,
509,
510,
511,
512,
513,
514,
515,
516,
517,
518,
519,
520,
521,
522,
523,
524,
525,
526,
527,
528,
529,
530,
531,
532,
533,
534,
535,
536,
537,
538,
539,
540,
541,
542,
543,
544,
545,
546,
547,
548,
549,
550,
551,
552,
553,
554,
555,
556,
557,
558,
559,
560,
561,
562,
563,
564,
565,
566,
567,
568,
569,
570,
571,
572,
573,
574,
575,
576,
577,
578,
579,
580,
581,
582,
583,
584,
585,
586,
587,
588,
589,
590,
591,
592,
593,
594,
595,
596,
597,
598,
599,
600,
601,
602,
603,
604,
605,
606,
607,
608,
609,
610,
611,
612,
613,
614,
615,
616,
617,
618,
619,
620,
621,
622,
623,
624,
625,
626,
627,
628,
629,
630,
631,
632,
633,
634,
635,
636,
637,
638,
639,
640,
641,
642,
643,
644,
645,
646,
647,
648,
649,
650,
651,
652,
653,
654,
655,
656,
657,
658,
659,
660,
661,
662,
663,
664,
665,
666,
667,
668,
669,
670,
671,
672,
673,
674,
675,
676,
677,
678,
679,
680,
681,
682,
683,
684,
685,
686,
687,
688,
689,
690,
691,
692,
693,
694,
695,
696,
697,
698,
699,
700,
701,
702,
703,
704,
705,
706,
707,
708,
709,
710,
711,
712,
713,
714,
715,
716,
717,
718,
719,
720,
721,
722,
723,
724,
725,
726,
727,
728,
729,
730,
731,
732,
733,
734,
735,
736,
737,
738,
739,
740,
741,
742,
743,
744,
745,
746,
747,
748,
749,
750,
751,
752,
753,
754,
755,
756,
757,
758,
759,
760,
761,
762,
763,
764,
765,
766,

***********************************************************
** constraints fixed node sets
** TemporalConstraintPrimaryFace
*NSET,NSET=TemporalConstraintPrimaryFace
5,
6,
7,
8,
9,
10,
11,
12,
40,
41,
42,
43,
155,
156,
157,
162,
163,
164,
165,
166,
197,
198,
199,
200,
201,
232,
235,
356,
357,
373,
374,
375,
402,
403,
404,
505,
514,
528,
530,
531,
558,
566,
567,
568,
626,
** TemporalConstraintReplicaFace
*NSET,NSET=TemporalConstraintReplicaFace
1,
2,
3,
4,
15,
16,
17,
18,
19,
20,
21,
22,
23,
24,
25,
26,
27,
28,
29,
46,
47,
48,
49,
50,
51,
52,
53,
54,
55,
56,
57,
58,
59,
60,
170,
171,
172,
173,
174,
175,
176,
177,
178,
179,
180,
181,
182,
183,
184,
185,
205,
206,
207,
208,
209,
210,
211,
212,
213,
214,
215,
216,
217,
218,
219,
220,
233,
234,
590,
591,
592,
593,
594,
595,
596,
597,
598,
599,
600,
601,
602,
603,
604,
605,
606,
607,
608,
609,
610,
611,
612,
613,
614,
615,
616,
617,
618,
619,
620,
** TemporalConstraintReplicaEdge
*NSET,NSET=TemporalConstraintReplicaEdge
2,
4,
46,
47,
48,
49,
50,
51,
52,
53,
54,
55,
56,
57,
58,
59,
60,
205,
206,
207,
208,
209,
210,
211,
212,
213,
214,
215,
216,
217,
218,
219,
220,

***********************************************************
** constraints displacement node sets
** ConstraintBottomFace
*NSET,NSET=ConstraintBottomFace
117,
489,
144,
419,
518,
204,
488,
508,
497,
405,
467,
197,
453,
521,
148,
129,
511,
444,
456,
443,
223,
417,
519,
127,
140,
227,
483,
412,
406,
61,
114,
559,
224,
143,
438,
471,
137,
475,
145,
484,
229,
150,
470,
425,
449,
517,
540,
121,
458,
40,
430,
500,
551,
560,
539,
544,
563,
459,
485,
133,
515,
142,
503,
536,
119,
493,
435,
562,
41,
201,
436,
461,
421,
491,
550,
537,
432,
67,
486,
63,
529,
448,
139,
136,
496,
522,
418,
43,
513,
125,
439,
226,
123,
464,
545,
45,
65,
442,
8,
478,
203,
446,
199,
482,
451,
473,
527,
132,
126,
231,
440,
120,
222,
138,
525,
507,
122,
564,
44,
64,
477,
147,
541,
411,
68,
146,
520,
221,
70,
535,
543,
427,
495,
131,
526,
149,
455,
153,
466,
506,
410,
428,
230,
415,
154,
501,
472,
462,
413,
465,
457,
532,
6,
135,
554,
408,
431,
552,
524,
445,
452,
499,
424,
66,
124,
516,
463,
202,
426,
510,
546,
407,
128,
42,
414,
62,
130,
134,
151,
480,
547,
557,
512,
469,
565,
553,
422,
454,
116,
502,
504,
487,
416,
561,
555,
118,
434,
433,
429,
420,
460,
200,
423,
490,
534,
437,
69,
450,
548,
523,
492,
481,
441,
115,
409,
198,
225,
479,
538,
542,
141,
556,
533,
468,
476,
494,
228,
549,
498,
447,
509,
474,
152,
** ConstraintInnerEgde
*NSET,NSET=ConstraintInnerEgde
7,
8,
235,

***********************************************************
** Materials
** see information about units at file end
** FreeCAD material name: Calculix-Steel
** MaterialSolid
*MATERIAL, NAME=MaterialSolid
*ELASTIC
210000,0.3
*DENSITY
7.9E-09

***********************************************************
** Sections
*SOLID SECTION, ELSET=MaterialSolidSolid, MATERIAL=MaterialSolid

***********************************************************
** *CYCLIC SYMMETRY MODEL should be placed before all step definitions
*SURFACE, TYPE=NODE, NAME=Primary1
TemporalConstraintPrimaryFace

*SURFACE, TYPE=NODE, NAME=Replica1
TemporalConstraintReplicaFace

*TIE, CYCLIC SYMMETRY, NAME=Tie1
Replica1, Primary1

*CYCLIC SYMMETRY MODEL, N=12, NGRAPH=12, TIE=Tie1
0.,0.,0.,0.,0.,1.


***********************************************************
** At least one step is needed to run an CalculiX analysis of FreeCAD
*STEP
*STATIC




***********************************************************
** Displacement constraint applied
** ConstraintBottomFace
*BOUNDARY
ConstraintBottomFace,3,3,0.0
** ConstraintInnerEgde
*BOUNDARY
ConstraintInnerEgde,2,2,0.0


***********************************************************
** Centrif Constraints
** ConstraintCentrif
*DLOAD
ConstraintCentrif,CENTRIF,394784.1760436,0,0,0,0,0,1


***********************************************************
** Outputs --> frd file
*NODE FILE
U
*EL FILE
S, E
** outputs --> dat file
** reaction forces for Constraint fixed
*NODE PRINT, NSET=TemporalConstraintPrimaryFace, TOTALS=ONLY
RF
*NODE PRINT, NSET=TemporalConstraintReplicaFace, TOTALS=ONLY
RF
*NODE PRINT, NSET=TemporalConstraintReplicaEdge, TOTALS=ONLY
RF
** reaction forces for Constraint displacement constraining translation
*NODE PRINT, NSET=ConstraintBottomFace, TOTALS=ONLY
RF
*NODE PRINT, NSET=ConstraintInnerEgde, TOTALS=ONLY
RF


***********************************************************
*END STEP 

***********************************************************
** CalculiX Input file
**   written by    --> FreeCAD 0.21.0
**   written on    --> Thu Aug 31 12:56:34 2023
**   file name     --> 
**   analysis name --> Analysis
**
**
***********************************************************
**  About units:
**  See ccx manual, ccx does not know about any unit.
**  Golden rule: The user must make sure that the numbers they provide have consistent units.
**  The user is the FreeCAD calculix writer module ;-)
**
**  The unit system which is used at Guido Dhondt's company: mm, N, s, K
**  Since Length and Mass are connected by Force, if Length is mm the Mass is in t to get N
**  The following units are used to write to inp file:
**
**  Length: mm (this includes the mesh geometry)
**  Mass: t
**  TimeSpan: s
**  Temperature: K
**
**  This leads to:
**  Force: N
**  Pressure: N/mm^2 == MPa (Young's Modulus has unit Pressure)
**  Density: t/mm^3
**  Gravity: mm/s^2
**  Thermal conductivity: t*mm/K/s^3 == as W/m/K == kW/mm/K
**  Specific Heat: mm^2/s^2/K = J/kg/K == kJ/t/K
**
